{
    "name": "Module.NavigationTool.Editor.Entities",
    "rootNamespace": "Module.NavigationTool.Editor.Entities",
    "references": [
        "GUID:8339b3ce77cb32f489776d81010ad36c"
    ],
    "includePlatforms": [
        "Editor"
    ],
    "excludePlatforms": [],
    "allowUnsafeCode": false,
    "overrideReferences": false,
    "precompiledReferences": [],
    "autoReferenced": false,
    "defineConstraints": [],
    "versionDefines": [],
    "noEngineReferences": false
}